\relax 
\babel@aux{nil}{}
\@writefile{toc}{\contentsline {section}{\numberline {1}Davide Sangiorgi}{3}}
\@writefile{toc}{\contentsline {subsection}{\numberline {1.1}Personas}{3}}
\@writefile{toc}{\contentsline {subsection}{\numberline {1.2}Scenarios}{3}}
\@writefile{toc}{\contentsline {section}{\numberline {2}Lucy Zoffoli}{3}}
\@writefile{toc}{\contentsline {subsection}{\numberline {2.1}Personas}{3}}
\@writefile{toc}{\contentsline {subsection}{\numberline {2.2}Scenarios}{3}}
\@writefile{toc}{\contentsline {section}{\numberline {3}Marta Sanzucchi}{4}}
\@writefile{toc}{\contentsline {subsection}{\numberline {3.1}Personas}{4}}
\@writefile{toc}{\contentsline {subsection}{\numberline {3.2}Scenarios}{4}}
\@writefile{toc}{\contentsline {section}{\numberline {4}Francesca Gallo}{4}}
\@writefile{toc}{\contentsline {subsection}{\numberline {4.1}Personas}{4}}
\@writefile{toc}{\contentsline {subsection}{\numberline {4.2}Scenarios}{4}}
